{
  "index": [
    {
      "name": "guides",
      "headings": [
        {
          "name": "bitbucket",
          "heading": null,
          "title": "Bitbucket",
          "items": [
            {
              "title": "Bitbucket Cloud",
              "url": "https://developer.atlassian.com/bitbucket/"
            },
            {
              "title": "Bitbucket Server",
              "url": "https://developer.atlassian.com/bitbucket/server/docs/latest/"
            }
          ]
        },
        {
          "name": "confluence",
          "heading": null,
          "title": "Confluence",
          "items": [
            {
              "title": "Confluence Cloud",
              "url": "https://developer.atlassian.com/confcloud"
            },
            {
              "title": "Confluence Server",
              "url": "https://developer.atlassian.com/confdev"
            }
          ]
        },
        {
          "name": "hipchat",
          "heading": null,
          "title": "HipChat",
          "items": [
            {
              "title": "HipChat Cloud and Server",
              "url": "https://developer.atlassian.com/hipchat"
            }
          ]
        },
        {
          "name": "jira",
          "heading": null,
          "title": "JIRA",
          "items": [
            {
              "title": "JIRA Cloud platform",
              "url": "/cloud/jira/platform"
            },
            {
              "title": "JIRA Server platform",
              "url": "https://developer.atlassian.com/jiradev"
            },
            {
              "title": "JIRA Service Desk Cloud",
              "url": "/cloud/jira/service-desk"
            },
            {
              "title": "JIRA Service Desk Server",
              "url": "https://developer.atlassian.com/jiradev/jira-applications/jira-service-desk"
            },
            {
              "title": "JIRA Software Cloud",
              "url": "/cloud/jira/software"
            },
            {
              "title": "JIRA Software Server",
              "url": "https://developer.atlassian.com/jiradev/jira-applications/jira-software"
            }
          ]
        }
      ],
      "section": null,
      "title": "Product guides"
    }
  ]
}
